[gd_scene load_steps=8 format=2]

[sub_resource type="Gradient" id=1]

offsets = PoolRealArray( 0, 0.224852, 0.662722, 0.982249 )
colors = PoolColorArray( 1, 1, 1, 0, 0.949554, 0.962803, 0.992188, 1, 0.5896, 0.611343, 0.9375, 1, 0.777344, 0.89563, 1, 0 )

[sub_resource type="GradientTexture" id=2]

flags = 4
gradient = SubResource( 1 )
width = 2048

[sub_resource type="Curve" id=3]

min_value = 0.0
max_value = 1.0
bake_resolution = 100
_data = [ Vector2( 0, 0.553711 ), 0.0, 0.960892, 0, 0, Vector2( 0.569993, 1 ), 0.0, 0.0, 0, 0 ]

[sub_resource type="CurveTexture" id=4]

flags = 4
width = 2048
curve = SubResource( 3 )

[sub_resource type="ParticlesMaterial" id=5]

render_priority = 0
trail_divisor = 1
emission_shape = 2
emission_box_extents = Vector3( 960, 540, 1 )
flag_align_y = false
flag_rotate_y = false
flag_disable_z = true
spread = 180.0
flatness = 0.0
gravity = Vector3( 60, 60, 0 )
initial_velocity = 160.0
initial_velocity_random = 0.6
angular_velocity = 0.0
angular_velocity_random = 0.5
orbit_velocity = 0.0
orbit_velocity_random = 0.0
linear_accel = 0.0
linear_accel_random = 0.0
radial_accel = 0.0
radial_accel_random = 0.0
tangential_accel = 0.0
tangential_accel_random = 0.0
damping = 20.0
damping_random = 1.0
angle = 0.0
angle_random = 0.0
scale = 0.08
scale_random = 0.08
scale_curve = SubResource( 4 )
color_ramp = SubResource( 2 )
hue_variation = 0.0
hue_variation_random = 1.0
anim_speed = 0.0
anim_speed_random = 0.0
anim_offset = 0.0
anim_offset_random = 0.0
anim_loop = false
_sections_unfolded = [ "Angle", "Damping", "Gravity", "Hue Variation", "Initial Velocity", "Scale" ]

[sub_resource type="GradientTexture" id=6]

flags = 4
gradient = SubResource( 1 )
width = 2048

[sub_resource type="ParticlesMaterial" id=7]

render_priority = 0
trail_divisor = 1
emission_shape = 2
emission_box_extents = Vector3( 960, 540, 1 )
flag_align_y = false
flag_rotate_y = false
flag_disable_z = true
spread = 180.0
flatness = 0.0
gravity = Vector3( 100, 100, 0 )
initial_velocity = 300.0
initial_velocity_random = 0.8
angular_velocity = 0.0
angular_velocity_random = 0.5
orbit_velocity = 0.0
orbit_velocity_random = 0.0
linear_accel = 0.0
linear_accel_random = 0.0
radial_accel = 0.0
radial_accel_random = 0.0
tangential_accel = 0.0
tangential_accel_random = 0.0
damping = 20.0
damping_random = 1.0
angle = 0.0
angle_random = 0.0
scale = 0.14
scale_random = 0.14
scale_curve = SubResource( 4 )
color_ramp = SubResource( 6 )
hue_variation = 0.0
hue_variation_random = 1.0
anim_speed = 0.0
anim_speed_random = 0.0
anim_offset = 0.0
anim_offset_random = 0.0
anim_loop = false
_sections_unfolded = [ "Angle", "Animation", "Color", "Damping", "Gravity", "Hue Variation", "Initial Velocity", "Scale" ]

[node name="Background" type="Control" index="0"]
anchor_left = 0.0
anchor_top = 0.0
anchor_right = 1.0
anchor_bottom = 1.0
rect_pivot_offset = Vector2( 0, 0 )
rect_clip_content = false
mouse_filter = 0
mouse_default_cursor_shape = 0
size_flags_horizontal = 1
size_flags_vertical = 1

[node name="TextureRect" type="TextureRect" parent="." index="0"]
visible = false
show_behind_parent = true
anchor_left = 0.0
anchor_top = 0.0
anchor_right = 1.0
anchor_bottom = 1.0
rect_pivot_offset = Vector2( 0, 0 )
rect_clip_content = false
mouse_filter = 1
mouse_default_cursor_shape = 0
size_flags_horizontal = 1
size_flags_vertical = 1
expand = true
stretch_mode = 0
_sections_unfolded = [ "Visibility" ]

[node name="Particles" type="Node2D" parent="." index="1"]
visible = false
_sections_unfolded = [ "Transform" ]

[node name="Snow" type="Node2D" parent="Particles" index="0"]
_sections_unfolded = [ "Visibility" ]

[node name="Small" type="Particles2D" parent="Particles/Snow" index="0"]
position = Vector2( 467.072, 288.19 )
emitting = false
amount = 300
lifetime = 6.0
one_shot = false
preprocess = 600.0
speed_scale = 1.0
explosiveness = 0.0
randomness = 1.0
fixed_fps = 0
fract_delta = true
visibility_rect = Rect2( 0, 0, 0, 0 )
local_coords = false
draw_order = 0
process_material = SubResource( 5 )
texture = null
normal_map = null
h_frames = 1
v_frames = 1
_sections_unfolded = [ "Material", "Process Material", "Textures", "Time", "Visibility" ]

[node name="Medium" type="Particles2D" parent="Particles/Snow" index="1"]
position = Vector2( 467.072, 288.19 )
emitting = false
amount = 120
lifetime = 4.0
one_shot = false
preprocess = 600.0
speed_scale = 1.2
explosiveness = 0.0
randomness = 1.0
fixed_fps = 0
fract_delta = true
visibility_rect = Rect2( 0, 0, 0, 0 )
local_coords = false
draw_order = 0
process_material = SubResource( 7 )
texture = null
normal_map = null
h_frames = 1
v_frames = 1
_sections_unfolded = [ "Material", "Process Material", "Textures", "Time", "Visibility" ]

[node name="ColorRect" type="ColorRect" parent="." index="2"]
visible = false
anchor_left = 0.0
anchor_top = 0.0
anchor_right = 1.0
anchor_bottom = 1.0
rect_pivot_offset = Vector2( 0, 0 )
rect_clip_content = false
mouse_filter = 0
mouse_default_cursor_shape = 0
size_flags_horizontal = 1
size_flags_vertical = 1
color = Color( 0.2, 0.247059, 0.403922, 1 )

