[gd_resource type="Theme" load_steps=5 format=2]

[ext_resource path="res://assets/fonts/segoe_ui/segoe_ui_bold_italic.ttf" type="DynamicFontData" id=1]
[ext_resource path="res://assets/fonts/segoeuib.ttf" type="DynamicFontData" id=2]

[sub_resource type="DynamicFont" id=1]

size = 36
outline_size = 0
outline_color = Color( 1, 1, 1, 1 )
use_mipmaps = false
use_filter = true
font_data = ExtResource( 1 )
_sections_unfolded = [ "Extra Spacing", "Font", "Settings" ]

[sub_resource type="DynamicFont" id=2]

size = 36
outline_size = 0
outline_color = Color( 1, 1, 1, 1 )
use_mipmaps = false
use_filter = true
font_data = ExtResource( 2 )
_sections_unfolded = [ "Settings" ]

[resource]

default_font = SubResource( 2 )
Label/colors/font_color = Color( 0.937255, 0.945098, 0.960784, 1 )
Label/colors/font_color_shadow = Color( 0, 0, 0, 0 )
Label/constants/line_spacing = 3
Label/constants/shadow_as_outline = 0
Label/constants/shadow_offset_x = 1
Label/constants/shadow_offset_y = 1
Label/fonts/font = SubResource( 1 )
Label/styles/normal = null
RichTextLabel/colors/default_color = Color( 0.223529, 0.321569, 0.521569, 1 )
RichTextLabel/colors/font_color_selected = Color( 0.223529, 0.321569, 0.521569, 1 )
RichTextLabel/colors/selection_color = Color( 0.223529, 0.321569, 0.521569, 0 )
RichTextLabel/constants/line_separation = 1
RichTextLabel/constants/table_hseparation = 3
RichTextLabel/constants/table_vseparation = 3
RichTextLabel/fonts/bold_font = null
RichTextLabel/fonts/bold_italics_font = null
RichTextLabel/fonts/italics_font = null
RichTextLabel/fonts/mono_font = null
RichTextLabel/fonts/normal_font = null
RichTextLabel/styles/focus = null
RichTextLabel/styles/normal = null
_sections_unfolded = [ "Label", "Label/colors", "Label/constants", "Label/fonts", "RichTextLabel/colors", "RichTextLabel/fonts", "RichTextLabel/styles" ]

